{
  "aliases": {
    "@npm": "node_modules",
    "@base": "frontend/web/themes/goldsmith",
    "@src": "frontend/web/themes/goldsmith/src",
    "@dist": "frontend/web/themes/goldsmith/dist"
  },
  "siteJsSrc": [
    "@src/js/init/*",
    "@src/js/util/*",
    "@src/js/api/*",
    "@src/js/ctrl/*"
  ],
  "siteJsDist": "@dist/js",
  "siteJsConcat": "site.js",
  "siteCssSrc": [
    "!@src/css/_*",
    "@src/css/*"
  ],
  "siteCssDist": "@dist/css",
  "sortCssPath": "@src/css",
  "sortCssExclusions": [
    "!./@npm",
    "!@src/css/templates/*"
  ],
  "iconFontSvgSrc": "@src/svg",
  "iconFontCssTemplateSrc": "@src/css/templates",
  "iconFontDist": "@dist/fonts",
  "iconFontCssDist": "@src/css",
  "iconFontCfg": {
    "font": {
      "fontName": "iconfont",
      "formats": [
        "ttf",
        "eot",
        "woff",
        "woff2",
        "svg"
      ],
      "normalize": false,
      "fontHeight": 1000
    },
    "css": {
      "fontName": "iconfont",
      "fontPath": "../../dist/fonts/",
      "className": "icon"
    }
  },
  "vendorJsSrc": [
    "@npm/js-cookie/src/js.cookie.js",
    "@npm/lodash/lodash.min.js",
    "@npm/owl.carousel/dist/owl.carousel.min.js",
    "@npm/imagesloaded/imagesloaded.pkgd.min.js",
    "@npm/jquery-ui-dist/jquery-ui.min.js",
    "@npm/jquery.cookie/jquery.cookie.js",
    "@npm/@fancyapps/fancybox/dist/jquery.fancybox.min.js"
  ],
  "vendorJsDist": "@dist/js",
  "vendorJsConcat": "vendor.js",
  "vendorCssSrc": [
    "@npm/@fancyapps/fancybox/dist/jquery.fancybox.min.css"
  ],
  "vendorCssDist": "@dist/css",
  "vendorCssConcat": "vendor.css",
  "watchJs": "@src/js/**/*",
  "watchCss": "@src/css/**/*",
  "optimizeJsPath": "@dist/js",
  "optimizeCssPath": "@dist/css",
  "compressImgSrc": "@base/img_original/**/*",
  "compressImgDist": "@base/img",
  "livereloadSrc": "@dist/css/*.css"
}
